<?xml version="1.0" ?>
<robot name="rs12f_dualbend" xmlns:xacro="http://ros.org/wiki/xacro">


  <xacro:macro name="rs12f_dualbend" params="parent *origin name:=rs1">

    <material name="${name}_black">
        <color rgba="0.3 0.3 0.3 1" />
    </material>


    <joint name="${name}_joint" type="fixed">
      <parent link="${parent}"/>
      <child link="${name}_base_link" />
      <origin xyz="0 0 0" rpy="0 0 0"/>
    </joint>

    <link name="${name}_base_link"/>

    <joint name="${name}_base_link_joint" type="fixed">
        <parent link="${name}_base_link"/>
        <child link="${name}_100_short"/>
        <origin rpy="0 0 0"/>
    </joint>

    <link name="${name}_100_short">
      <visual>
          <geometry>
              <mesh filename="package://rs1_description/meshes/pbh/RS1-100-short.stl"/>
          </geometry>
          <origin rpy="0 0 0" xyz="0 0 0"/>
          <material name="${name}_black"/>
      </visual>
    </link>


    <link name="${name}_222_short">
      <visual>
          <geometry>
              <mesh filename="package://rs1_description/meshes/pbh/RS1-222-short.stl"/>
          </geometry>
          <origin rpy="0 0 0" xyz="0 0 0"/>
          <material name="${name}_black"/>
      </visual>
    </link>


    <link name="${name}_218">
      <visual>
          <geometry>
              <mesh filename="package://rs1_description/meshes/pbh/RS1-218.stl"/>
          </geometry>
          <origin rpy="0 0 0" xyz="0 0 0"/>
          <material name="${name}_black"/>
      </visual>
      <visual>
          <geometry>
              <mesh filename="package://rs1_description/meshes/pbh/PBH-100.stl"/>
          </geometry>
          <origin rpy="0 0 0" xyz="0 0 0"/>
          <material name="${name}_orange">
            <color rgba="1 0.7 0 1"/>
          </material>
      </visual>
    </link>

    <joint name="${name}_axis_b" type="revolute">
      <device_id value="0x15"/>
      <parent link="${name}_100_short"/>
      <child link="${name}_222_short"/>
      <origin xyz="0.097 0 -0.02" rpy="0 0 0"/>
      <axis xyz="0 -1 0"/>
      <limit effort="9.0" lower="0.0" upper="3.5" velocity="0.5"/>
    </joint>


    <joint name="${name}_axis_a" type="revolute">
      <parent link="${name}_222_short"/>
      <child link="${name}_218"/>
      <origin xyz="-0.1359 0 -0.04" rpy="0 0 0"/>
      <axis xyz="0 1 0"/>
      <limit effort="9.0" lower="0.0" upper="3.5" velocity="0.5"/>
    </joint>
  </xacro:macro>

</robot>
