<?xml version="1.0" ?>

<robot name="parallel_jaws" xmlns:xacro="http://ros.org/wiki/xacro">
  <xacro:macro name="pincer_jaws" params="parent *origin name:=pincer_jaws">

    <material name="${name}_black">
        <color rgba="0.3 0.3 0.3 1" />
    </material>


    <joint name="${name}_joint" type="fixed">
      <xacro:insert_block name="origin" />
      <parent link="${parent}"/>
      <child link="${name}_base_link" />
    </joint>


    <link name="${name}_base_link">
    </link>
    <link name="${name}_push_rod"/>
    <joint name="${name}_axis_a" type="prismatic">
        <origin xyz="0 0 0.009" rpy="0 0 0"/>
        <parent link="${name}_base_link"/>
        <child link="${name}_push_rod"/>
        <axis xyz="0 0 1"/>
        <limit lower="0" upper="0.015" effort="10" velocity="10"/>
    </joint>


    <link name="${name}_rs1_130_link">
      <visual>
        <geometry>
          <mesh filename="package://rs1_description/meshes/pincer_jaws/RS1-130.stl"/>

        </geometry>
        <material name="${name}_black"/>
        <origin xyz="0 0 0" rpy="0 0 0"/>
      </visual>
    </link>

    <joint name="${name}_rs1_130_joint" type="revolute">
      <origin xyz="0 -0.0155 0.005" rpy="0 0 0"/>
      <parent link="${name}_base_link"/>
      <child link="${name}_rs1_130_link"/>
      <axis xyz="1 0 0"/>
      <limit lower="0" upper="0.5" effort="10" velocity="10"/>
      <mimic joint="${name}_axis_a" multiplier="30.9437" offset="0"/>
    </joint>


    <link name="${name}_rs1_139_link">
      <visual>
        <geometry>
          <mesh filename="package://rs1_description/meshes/pincer_jaws/RS1-139.stl"/>

        </geometry>
        <material name="${name}_black"/>
        <origin xyz="0 0 0" rpy="0 0 3.14159"/>
      </visual>
    </link>

    <joint name="${name}_rs1_139_joint" type="revolute">
      <origin xyz="0 0.0155 0.005" rpy="0 0 0"/>
      <parent link="${name}_base_link"/>
      <child link="${name}_rs1_139_link"/>
      <axis xyz="-1 0 0"/>
      <limit lower="0" upper="0.5" effort="10" velocity="10"/>
      <mimic joint="${name}_axis_a" multiplier="30.9437" offset="0"/>
    </joint>

  </xacro:macro>
</robot>
